[gd_resource type="ParticlesMaterial" load_steps=3 format=2]

[sub_resource type="Gradient" id=1]

offsets = PoolRealArray( 0, 1 )
colors = PoolColorArray( 1, 1, 1, 0.0784314, 1, 1, 1, 0.313726 )

[sub_resource type="GradientTexture" id=2]

flags = 4
gradient = SubResource( 1 )
width = 10

[resource]

render_priority = 0
trail_divisor = 1
emission_shape = 2
emission_box_extents = Vector3( 1024, 768, 0 )
flag_align_y = false
flag_rotate_y = false
flag_disable_z = true
spread = 180.0
flatness = 0.0
gravity = Vector3( 0, 0, 0 )
initial_velocity = 2.0
initial_velocity_random = 0.0
angular_velocity = 0.0
angular_velocity_random = 0.0
orbit_velocity = 0.0
orbit_velocity_random = 0.0
linear_accel = 0.0
linear_accel_random = 0.0
radial_accel = 0.0
radial_accel_random = 0.0
tangential_accel = 0.0
tangential_accel_random = 0.0
damping = 0.0
damping_random = 0.0
angle = 0.0
angle_random = 0.0
scale = 0.5
scale_random = 0.8
color_ramp = SubResource( 2 )
hue_variation = 0.0
hue_variation_random = 0.0
anim_speed = 1.0
anim_speed_random = 0.0
anim_offset = 0.0
anim_offset_random = 0.0
anim_loop = false
_sections_unfolded = [ "Angular Velocity", "Animation", "Color", "Initial Velocity", "Scale", "Spread" ]

